module github.com/apoclyps/magic-home

go 1.15

require (
	github.com/kr/text v0.2.0 // indirect
	github.com/mitchellh/go-homedir v1.1.0
	github.com/niemeyer/pretty v0.0.0-20200227124842-a10e7caefd8e // indirect
	github.com/smartystreets/goconvey v1.6.4
	github.com/spf13/cobra v1.1.3
	github.com/spf13/viper v1.8.0
	github.com/stretchr/testify v1.7.0
	gopkg.in/check.v1 v1.0.0-20200227125254-8fa46927fb4f // indirect
	gopkg.in/go-playground/colors.v1 v1.2.0
)
